\babel@toc {french}{}
\babel@toc {french}{}
\contentsline {section}{\numberline {}CHANT PREMIER}{2}{section.0.1}
\contentsline {section}{\numberline {}CHANT DEUXIÈME}{45}{section.0.2}
\contentsline {section}{\numberline {}CHANT TROISIÈME}{108}{section.0.3}
\contentsline {section}{\numberline {}CHANT QUATRIÈME}{139}{section.0.4}
\contentsline {section}{\numberline {}CHANT CINQUIÈME}{175}{section.0.5}
\contentsline {section}{\numberline {}CHANT SIXIÈME}{213}{section.0.6}
\contentsline {subsection}{\numberline {}I}{219}{subsection.0.6.1}
\contentsline {subsection}{\numberline {}II}{222}{subsection.0.6.2}
\contentsline {subsection}{\numberline {}III}{226}{subsection.0.6.3}
\contentsline {subsection}{\numberline {}IV}{232}{subsection.0.6.4}
\contentsline {subsection}{\numberline {}V}{234}{subsection.0.6.5}
\contentsline {subsection}{\numberline {}VI}{240}{subsection.0.6.6}
\contentsline {subsection}{\numberline {}VII}{244}{subsection.0.6.7}
\contentsline {subsection}{\numberline {}VIII}{247}{subsection.0.6.8}
