\relax 
\providecommand\hyper@newdestlabel[2]{}
\providecommand\HyperFirstAtBeginDocument{\AtBeginDocument}
\HyperFirstAtBeginDocument{\ifx\hyper@anchor\@undefined
\global\let\oldcontentsline\contentsline
\gdef\contentsline#1#2#3#4{\oldcontentsline{#1}{#2}{#3}}
\global\let\oldnewlabel\newlabel
\gdef\newlabel#1#2{\newlabelxx{#1}#2}
\gdef\newlabelxx#1#2#3#4#5#6{\oldnewlabel{#1}{{#2}{#3}}}
\AtEndDocument{\ifx\hyper@anchor\@undefined
\let\contentsline\oldcontentsline
\let\newlabel\oldnewlabel
\fi}
\fi}
\global\let\hyper@last\relax 
\gdef\HyperFirstAtBeginDocument#1{#1}
\providecommand*\HyPL@Entry[1]{}
\HyPL@Entry{0<</S/D>>}
\babel@aux{french}{}
\babel@aux{french}{}
\HyPL@Entry{6<</S/D>>}
\@writefile{toc}{\contentsline {section}{\numberline {}CHANT PREMIER}{2}{section.0.1}}
\newlabel{chant-premier}{{}{2}{CHANT PREMIER}{section.0.1}{}}
\@writefile{toc}{\contentsline {section}{\numberline {}CHANT DEUXIÈME}{45}{section.0.2}}
\newlabel{chant-deuxiuxe8me}{{}{45}{CHANT DEUXIÈME}{section.0.2}{}}
\@writefile{toc}{\contentsline {section}{\numberline {}CHANT TROISIÈME}{108}{section.0.3}}
\newlabel{chant-troisiuxe8me}{{}{108}{CHANT TROISIÈME}{section.0.3}{}}
\@writefile{toc}{\contentsline {section}{\numberline {}CHANT QUATRIÈME}{139}{section.0.4}}
\newlabel{chant-quatriuxe8me}{{}{139}{CHANT QUATRIÈME}{section.0.4}{}}
\@writefile{toc}{\contentsline {section}{\numberline {}CHANT CINQUIÈME}{175}{section.0.5}}
\newlabel{chant-cinquiuxe8me}{{}{175}{CHANT CINQUIÈME}{section.0.5}{}}
\@writefile{toc}{\contentsline {section}{\numberline {}CHANT SIXIÈME}{213}{section.0.6}}
\newlabel{chant-sixiuxe8me}{{}{213}{CHANT SIXIÈME}{section.0.6}{}}
\@writefile{toc}{\contentsline {subsection}{\numberline {}I}{219}{subsection.0.6.1}}
\newlabel{i}{{}{219}{I}{subsection.0.6.1}{}}
\@writefile{toc}{\contentsline {subsection}{\numberline {}II}{222}{subsection.0.6.2}}
\newlabel{ii}{{}{222}{II}{subsection.0.6.2}{}}
\@writefile{toc}{\contentsline {subsection}{\numberline {}III}{226}{subsection.0.6.3}}
\newlabel{iii}{{}{226}{III}{subsection.0.6.3}{}}
\@writefile{toc}{\contentsline {subsection}{\numberline {}IV}{232}{subsection.0.6.4}}
\newlabel{iv}{{}{232}{IV}{subsection.0.6.4}{}}
\@writefile{toc}{\contentsline {subsection}{\numberline {}V}{234}{subsection.0.6.5}}
\newlabel{v}{{}{234}{V}{subsection.0.6.5}{}}
\@writefile{toc}{\contentsline {subsection}{\numberline {}VI}{240}{subsection.0.6.6}}
\newlabel{vi}{{}{240}{VI}{subsection.0.6.6}{}}
\@writefile{toc}{\contentsline {subsection}{\numberline {}VII}{244}{subsection.0.6.7}}
\newlabel{vii}{{}{244}{VII}{subsection.0.6.7}{}}
\@writefile{toc}{\contentsline {subsection}{\numberline {}VIII}{247}{subsection.0.6.8}}
\newlabel{viii}{{}{247}{VIII}{subsection.0.6.8}{}}
