\relax 
\providecommand\hyper@newdestlabel[2]{}
\providecommand\HyperFirstAtBeginDocument{\AtBeginDocument}
\HyperFirstAtBeginDocument{\ifx\hyper@anchor\@undefined
\global\let\oldcontentsline\contentsline
\gdef\contentsline#1#2#3#4{\oldcontentsline{#1}{#2}{#3}}
\global\let\oldnewlabel\newlabel
\gdef\newlabel#1#2{\newlabelxx{#1}#2}
\gdef\newlabelxx#1#2#3#4#5#6{\oldnewlabel{#1}{{#2}{#3}}}
\AtEndDocument{\ifx\hyper@anchor\@undefined
\let\contentsline\oldcontentsline
\let\newlabel\oldnewlabel
\fi}
\fi}
\global\let\hyper@last\relax 
\gdef\HyperFirstAtBeginDocument#1{#1}
\providecommand*\HyPL@Entry[1]{}
\HyPL@Entry{0<</S/D>>}
\select@language {french}
\@writefile{toc}{\select@language {french}}
\@writefile{lof}{\select@language {french}}
\@writefile{lot}{\select@language {french}}
\@writefile{lof}{\contentsline {figure}{\numberline {1}{\ignorespaces Isidore Ducasse}}{1}{figure.1}}
\@writefile{lof}{\contentsline {figure}{\numberline {2}{\ignorespaces Maldoror}}{2}{figure.2}}
\@writefile{toc}{\contentsline {section}{CHANT PREMIER}{2}{section*.1}}
\newlabel{chant-premier}{{}{2}{CHANT PREMIER}{section*.1}{}}
\@writefile{toc}{\contentsline {section}{CHANT DEUXIÈME}{28}{section*.2}}
\newlabel{chant-deuxiuxe8me}{{}{28}{CHANT DEUXIÈME}{section*.2}{}}
\@writefile{toc}{\contentsline {section}{CHANT TROISIÈME}{62}{section*.3}}
\newlabel{chant-troisiuxe8me}{{}{62}{CHANT TROISIÈME}{section*.3}{}}
\@writefile{toc}{\contentsline {section}{CHANT QUATRIÈME}{78}{section*.4}}
\newlabel{chant-quatriuxe8me}{{}{78}{CHANT QUATRIÈME}{section*.4}{}}
\@writefile{toc}{\contentsline {section}{CHANT CINQUIÈME}{97}{section*.5}}
\newlabel{chant-cinquiuxe8me}{{}{97}{CHANT CINQUIÈME}{section*.5}{}}
\@writefile{toc}{\contentsline {section}{CHANT SIXIÈME}{117}{section*.6}}
\newlabel{chant-sixiuxe8me}{{}{117}{CHANT SIXIÈME}{section*.6}{}}
\@writefile{toc}{\contentsline {subsection}{I}{120}{section*.7}}
\newlabel{i}{{}{120}{I}{section*.7}{}}
\@writefile{toc}{\contentsline {subsection}{II}{122}{section*.8}}
\newlabel{ii}{{}{122}{II}{section*.8}{}}
\@writefile{toc}{\contentsline {subsection}{III}{124}{section*.9}}
\newlabel{iii}{{}{124}{III}{section*.9}{}}
\@writefile{toc}{\contentsline {subsection}{IV}{127}{section*.10}}
\newlabel{iv}{{}{127}{IV}{section*.10}{}}
\@writefile{toc}{\contentsline {subsection}{V}{128}{section*.11}}
\newlabel{v}{{}{128}{V}{section*.11}{}}
\@writefile{toc}{\contentsline {subsection}{VI}{131}{section*.12}}
\newlabel{vi}{{}{131}{VI}{section*.12}{}}
\@writefile{toc}{\contentsline {subsection}{VII}{133}{section*.13}}
\newlabel{vii}{{}{133}{VII}{section*.13}{}}
\@writefile{toc}{\contentsline {subsection}{VIII}{135}{section*.14}}
\newlabel{viii}{{}{135}{VIII}{section*.14}{}}
